module bitbucket.org/VelasDevelopment/govelas

go 1.12

require (
	github.com/GoKillers/libsodium-go v0.0.0-20171022220152-dd733721c3cb
	github.com/btcsuite/btcutil v0.0.0-20190425235716-9e5f4b9a998d
	github.com/go-errors/errors v1.0.1
	github.com/jamesruan/sodium v0.0.0-20181216154042-9620b83ffeae
	github.com/tyler-smith/go-bip39 v1.0.2
	golang.org/x/crypto v0.0.0-20190701094942-4def268fd1a4
	gopkg.in/resty.v1 v1.12.0
)
